Proyecto2/uP_tb.vcd
$date
	Sun Nov 22 01:52:18 2020
$end
$version
	Icarus Verilog
$end
$timescale
	1ps
$end
$scope module testbench $end
$var wire 4 ! data_bus [3:0] $end
$var wire 1 " z_flag $end
$var wire 8 # program_byte [7:0] $end
$var wire 1 $ phase $end
$var wire 4 % oprnd [3:0] $end
$var wire 4 & instr [3:0] $end
$var wire 1 ' c_flag $end
$var wire 12 ( address_RAM [11:0] $end
$var wire 4 ) accu [3:0] $end
$var wire 12 * PC [11:0] $end
$var wire 4 + FF_out [3:0] $end
$var reg 1 , clock $end
$var reg 4 - pushbuttons [3:0] $end
$var reg 1 . reset $end
$var integer 32 / immediateDelay [31:0] $end
$var integer 32 0 jumpDelay [31:0] $end
$var integer 32 1 memoryDelay [31:0] $end
$var integer 32 2 nota [31:0] $end
$scope module uPmodule $end
$var wire 1 , clock $end
$var wire 4 3 data_bus [3:0] $end
$var wire 4 4 pushbuttons [3:0] $end
$var wire 1 . reset $end
$var wire 1 " z_flag $end
$var wire 8 5 program_byte [7:0] $end
$var wire 1 $ phase $end
$var wire 4 6 oprnd [3:0] $end
$var wire 4 7 instr [3:0] $end
$var wire 13 8 dec [12:0] $end
$var wire 1 ' c_flag $end
$var wire 12 9 address_RAM [11:0] $end
$var wire 4 : accu [3:0] $end
$var wire 1 ; ZE $end
$var wire 4 < SALU [3:0] $end
$var wire 12 = PC [11:0] $end
$var wire 7 > J [6:0] $end
$var wire 4 ? FF_out [3:0] $end
$var wire 1 @ C $end
$scope module BT1 $end
$var wire 1 A EN $end
$var wire 4 B I1 [0:3] $end
$var wire 4 C Y1 [0:3] $end
$upscope $end
$scope module BT2 $end
$var wire 1 D EN $end
$var wire 4 E Y2 [0:3] $end
$var wire 4 F I2 [0:3] $end
$upscope $end
$scope module BT3 $end
$var wire 1 G EN $end
$var wire 4 H Y3 [0:3] $end
$var wire 4 I I3 [0:3] $end
$upscope $end
$scope module Fetch $end
$var wire 1 , CLK $end
$var wire 1 J EN $end
$var wire 1 . RESET $end
$var wire 4 K Q6 [0:3] $end
$var wire 4 L Q5 [0:3] $end
$var wire 8 M D5 [0:7] $end
$scope module F8_1 $end
$var wire 1 , CLK $end
$var wire 4 N D4 [0:3] $end
$var wire 1 J EN $end
$var wire 1 . RESET $end
$var wire 4 O Q4 [0:3] $end
$scope module F4_1 $end
$var wire 1 , CLK $end
$var wire 2 P D2 [0:1] $end
$var wire 1 J EN $end
$var wire 1 . RESET $end
$var wire 2 Q Q2 [0:1] $end
$scope module F2_1 $end
$var wire 1 , CLK $end
$var wire 1 R D $end
$var wire 1 J EN $end
$var wire 1 . RESET $end
$var reg 1 S Q $end
$upscope $end
$scope module F2_2 $end
$var wire 1 , CLK $end
$var wire 1 T D $end
$var wire 1 J EN $end
$var wire 1 . RESET $end
$var reg 1 U Q $end
$upscope $end
$upscope $end
$scope module F4_2 $end
$var wire 1 , CLK $end
$var wire 2 V D2 [0:1] $end
$var wire 1 J EN $end
$var wire 1 . RESET $end
$var wire 2 W Q2 [0:1] $end
$scope module F2_1 $end
$var wire 1 , CLK $end
$var wire 1 X D $end
$var wire 1 J EN $end
$var wire 1 . RESET $end
$var reg 1 Y Q $end
$upscope $end
$scope module F2_2 $end
$var wire 1 , CLK $end
$var wire 1 Z D $end
$var wire 1 J EN $end
$var wire 1 . RESET $end
$var reg 1 [ Q $end
$upscope $end
$upscope $end
$upscope $end
$scope module F8_2 $end
$var wire 1 , CLK $end
$var wire 4 \ D4 [0:3] $end
$var wire 1 J EN $end
$var wire 1 . RESET $end
$var wire 4 ] Q4 [0:3] $end
$scope module F4_1 $end
$var wire 1 , CLK $end
$var wire 2 ^ D2 [0:1] $end
$var wire 1 J EN $end
$var wire 1 . RESET $end
$var wire 2 _ Q2 [0:1] $end
$scope module F2_1 $end
$var wire 1 , CLK $end
$var wire 1 ` D $end
$var wire 1 J EN $end
$var wire 1 . RESET $end
$var reg 1 a Q $end
$upscope $end
$scope module F2_2 $end
$var wire 1 , CLK $end
$var wire 1 b D $end
$var wire 1 J EN $end
$var wire 1 . RESET $end
$var reg 1 c Q $end
$upscope $end
$upscope $end
$scope module F4_2 $end
$var wire 1 , CLK $end
$var wire 2 d D2 [0:1] $end
$var wire 1 J EN $end
$var wire 1 . RESET $end
$var wire 2 e Q2 [0:1] $end
$scope module F2_1 $end
$var wire 1 , CLK $end
$var wire 1 f D $end
$var wire 1 J EN $end
$var wire 1 . RESET $end
$var reg 1 g Q $end
$upscope $end
$scope module F2_2 $end
$var wire 1 , CLK $end
$var wire 1 h D $end
$var wire 1 J EN $end
$var wire 1 . RESET $end
$var reg 1 i Q $end
$upscope $end
$upscope $end
$upscope $end
$upscope $end
$scope module aaaacccuuuu $end
$var wire 1 , CLK $end
$var wire 1 j EN $end
$var wire 1 . RESET $end
$var wire 4 k Q4 [0:3] $end
$var wire 4 l D4 [0:3] $end
$scope module F4_1 $end
$var wire 1 , CLK $end
$var wire 2 m D2 [0:1] $end
$var wire 1 j EN $end
$var wire 1 . RESET $end
$var wire 2 n Q2 [0:1] $end
$scope module F2_1 $end
$var wire 1 , CLK $end
$var wire 1 o D $end
$var wire 1 j EN $end
$var wire 1 . RESET $end
$var reg 1 p Q $end
$upscope $end
$scope module F2_2 $end
$var wire 1 , CLK $end
$var wire 1 q D $end
$var wire 1 j EN $end
$var wire 1 . RESET $end
$var reg 1 r Q $end
$upscope $end
$upscope $end
$scope module F4_2 $end
$var wire 1 , CLK $end
$var wire 2 s D2 [0:1] $end
$var wire 1 j EN $end
$var wire 1 . RESET $end
$var wire 2 t Q2 [0:1] $end
$scope module F2_1 $end
$var wire 1 , CLK $end
$var wire 1 u D $end
$var wire 1 j EN $end
$var wire 1 . RESET $end
$var reg 1 v Q $end
$upscope $end
$scope module F2_2 $end
$var wire 1 , CLK $end
$var wire 1 w D $end
$var wire 1 j EN $end
$var wire 1 . RESET $end
$var reg 1 x Q $end
$upscope $end
$upscope $end
$upscope $end
$scope module alu $end
$var wire 4 y A [3:0] $end
$var wire 4 z B [3:0] $end
$var wire 3 { COM [2:0] $end
$var wire 1 ; zero $end
$var wire 1 @ carry $end
$var wire 4 | R [3:0] $end
$var reg 5 } PM [4:0] $end
$upscope $end
$scope module code $end
$var wire 7 ~ I [6:0] $end
$var wire 13 !" O [12:0] $end
$var reg 13 "" s [12:0] $end
$upscope $end
$scope module contador $end
$var wire 1 #" En $end
$var wire 1 $" NBL $end
$var wire 1 , clk $end
$var wire 12 %" load [11:0] $end
$var wire 1 . reset $end
$var reg 12 &" s [11:0] $end
$upscope $end
$scope module fase $end
$var wire 1 , CLK $end
$var wire 1 . RESET $end
$var wire 1 $ Q $end
$scope module FT $end
$var wire 1 , CLK $end
$var wire 1 '" D $end
$var wire 1 . RESET $end
$var reg 1 $ Q $end
$upscope $end
$upscope $end
$scope module flags $end
$var wire 1 , CLK $end
$var wire 2 (" D2 [1:0] $end
$var wire 1 )" EN $end
$var wire 1 . RESET $end
$var wire 1 " Q2Z $end
$var wire 1 ' Q2C $end
$scope module F2_1 $end
$var wire 1 , CLK $end
$var wire 1 *" D $end
$var wire 1 )" EN $end
$var wire 1 . RESET $end
$var reg 1 ' Q $end
$upscope $end
$scope module F2_2 $end
$var wire 1 , CLK $end
$var wire 1 +" D $end
$var wire 1 )" EN $end
$var wire 1 . RESET $end
$var reg 1 " Q $end
$upscope $end
$upscope $end
$scope module out $end
$var wire 1 , CLK $end
$var wire 4 ," D4 [0:3] $end
$var wire 1 -" EN $end
$var wire 1 . RESET $end
$var wire 4 ." Q4 [0:3] $end
$scope module F4_1 $end
$var wire 1 , CLK $end
$var wire 2 /" D2 [0:1] $end
$var wire 1 -" EN $end
$var wire 1 . RESET $end
$var wire 2 0" Q2 [0:1] $end
$scope module F2_1 $end
$var wire 1 , CLK $end
$var wire 1 1" D $end
$var wire 1 -" EN $end
$var wire 1 . RESET $end
$var reg 1 2" Q $end
$upscope $end
$scope module F2_2 $end
$var wire 1 , CLK $end
$var wire 1 3" D $end
$var wire 1 -" EN $end
$var wire 1 . RESET $end
$var reg 1 4" Q $end
$upscope $end
$upscope $end
$scope module F4_2 $end
$var wire 1 , CLK $end
$var wire 2 5" D2 [0:1] $end
$var wire 1 -" EN $end
$var wire 1 . RESET $end
$var wire 2 6" Q2 [0:1] $end
$scope module F2_1 $end
$var wire 1 , CLK $end
$var wire 1 7" D $end
$var wire 1 -" EN $end
$var wire 1 . RESET $end
$var reg 1 8" Q $end
$upscope $end
$scope module F2_2 $end
$var wire 1 , CLK $end
$var wire 1 9" D $end
$var wire 1 -" EN $end
$var wire 1 . RESET $end
$var reg 1 :" Q $end
$upscope $end
$upscope $end
$upscope $end
$scope module prom $end
$var wire 8 ;" codigo [7:0] $end
$var wire 12 <" dire [11:0] $end
$upscope $end
$scope module ram $end
$var wire 12 =" address [0:11] $end
$var wire 1 >" cs $end
$var wire 4 ?" data [0:3] $end
$var wire 1 @" we $end
$var reg 4 A" dataout [0:3] $end
$upscope $end
$upscope $end
$upscope $end
$enddefinitions $end
#0
$dumpvars
bx A"
x@"
bx ?"
x>"
bx ="
bx <"
bx ;"
x:"
x9"
x8"
x7"
bx 6"
bx 5"
x4"
x3"
x2"
x1"
bx 0"
bx /"
bx ."
x-"
bx ,"
x+"
x*"
x)"
bx ("
x'"
bx &"
bx %"
x$"
x#"
bx ""
bx !"
bx ~
bx }
bx |
bx {
bx z
bx y
xx
xw
xv
xu
bx t
bx s
xr
xq
xp
xo
bx n
bx m
bx l
bx k
xj
xi
xh
xg
xf
bx e
bx d
xc
xb
xa
x`
bx _
bx ^
bx ]
bx \
x[
xZ
xY
xX
bx W
bx V
xU
xT
xS
xR
bx Q
bx P
bx O
bx N
bx M
bx L
bx K
xJ
bx I
bx H
xG
bx F
bx E
xD
bx C
b110 B
xA
x@
bx ?
bx >
bx =
bx <
x;
bx :
bx 9
bx 8
bx 7
bx 6
bx 5
b110 4
bx 3
b0 2
b100010100 1
b1010010000 0
b10000 /
0.
b110 -
0,
bx +
bx *
bx )
bx (
x'
bx &
bx %
x$
bx #
x"
bx !
$end
#2
01"
03"
07"
09"
b0 /"
b0 5"
b0 !
b0 3
b0 C
b0 E
b0 H
b0 z
b0 ,"
b0 ?"
b0 {
0@"
0>"
1G
0D
0A
0$"
1#"
0-"
0j
0)"
b1000000001000 8
b1000000001000 !"
b1000000001000 ""
1+"
0u
0w
0o
0q
1;
b0 s
b0 m
0*"
1`
1b
1f
1h
0R
1T
0X
0Z
b0 <
b0 I
b0 l
b0 |
b1 ("
0@
b11 ^
b11 d
b1 P
b0 V
b0 }
1'"
1J
b1111 \
b100 N
0S
b0 Q
0U
0Y
b0 &
b0 7
b0 L
b0 O
b0 W
0[
0a
b0 _
0c
0g
b0 %
b0 6
b0 F
b0 K
b0 ]
b0 e
0i
0'
0"
0p
b0 n
0r
0v
b0 )
b0 :
b0 k
b0 y
b0 t
0x
02"
b0 0"
04"
08"
b0 +
b0 ?
b0 ."
b0 6"
0:"
b0 >
b0 ~
0$
b1001111 (
b1001111 9
b1001111 %"
b1001111 ="
b1001111 #
b1001111 5
b1001111 M
b1001111 ;"
b0 *
b0 =
b0 &"
b0 <"
1.
#3
0.
#5
0+"
1u
1w
1o
1q
b0 ("
0;
b11 s
b11 m
11"
13"
17"
19"
b1111 <
b1111 I
b1111 l
b1111 |
b11 /"
b11 5"
b1111 }
b1111 !
b1111 3
b1111 C
b1111 E
b1111 H
b1111 z
b1111 ,"
b1111 ?"
b10 {
0G
1D
0#"
1j
1)"
b11010000010 8
b11010000010 !"
b11010000010 ""
1R
1Z
b11 P
b1 V
b1101 N
0'"
0J
b11011111 #
b11011111 5
b11011111 M
b11011111 ;"
b1 *
b1 =
b1 &"
b1 <"
1$
1i
b11 e
1g
1c
b111111011111 (
b111111011111 9
b111111011111 %"
b111111011111 ="
b1111 %
b1111 6
b1111 F
b1111 K
b1111 ]
b11 _
1a
b100001 >
b100001 ~
b100 &
b100 7
b100 L
b100 O
b1 Q
1U
1,
#10
0,
#15
b1111 !
b1111 3
b1111 C
b1111 E
b1111 H
b1111 z
b1111 ,"
b1111 ?"
b0 {
1G
0D
1#"
0j
0)"
b1000000001000 8
b1000000001000 !"
b1000000001000 ""
1'"
1J
1p
b11 n
1r
1v
b1111 )
b1111 :
b1111 k
b1111 y
b11 t
1x
b100000 >
b100000 ~
0$
1,
#16
b1000110 2
#20
0,
#25
0#"
1-"
b1001 8
b1001 !"
b1001 ""
0`
0b
0f
0R
b0 ^
b1 d
b1 P
b1 \
b101 N
0'"
0J
b111101010001 (
b111101010001 9
b111101010001 %"
b111101010001 ="
b1010001 #
b1010001 5
b1010001 M
b1010001 ;"
b10 *
b10 =
b10 &"
b10 <"
1$
b1 W
1[
b1101001 >
b1101001 ~
b1101 &
b1101 7
b1101 L
b1101 O
b11 Q
1S
1,
#30
0,
#35
1#"
0-"
b1000000001000 8
b1000000001000 !"
b1000000001000 ""
1'"
1J
12"
b11 0"
14"
18"
b1111 +
b1111 ?
b1111 ."
b11 6"
1:"
b1101000 >
b1101000 ~
0$
1,
#36
b1100111 2
#40
0,
#45
0w
0o
b10 s
b1 m
01"
09"
b110 <
b110 I
b110 l
b110 |
b1 /"
b10 5"
b110 }
b110 !
b110 3
b110 C
b110 E
b110 H
b110 z
b110 ,"
b110 ?"
b10 {
0G
1A
0#"
1j
1)"
b11010000100 8
b11010000100 !"
b11010000100 ""
0h
0Z
b0 d
b0 V
b0 \
b100 N
0'"
0J
b1000000 #
b1000000 5
b1000000 M
b1000000 ;"
b11 *
b11 =
b11 &"
b11 <"
1$
b1 e
0g
0c
b101000000 (
b101000000 9
b101000000 %"
b101000000 ="
b1 %
b1 6
b1 F
b1 K
b1 ]
b0 _
0a
b101001 >
b101001 ~
b101 &
b101 7
b101 L
b101 O
b1 Q
0S
1,
#50
0,
#55
b110 !
b110 3
b110 C
b110 E
b110 H
b110 z
b110 ,"
b110 ?"
b0 {
1G
0A
1#"
0j
0)"
b1000000001000 8
b1000000001000 !"
b1000000001000 ""
1'"
1J
b1 n
0p
b110 )
b110 :
b110 k
b110 y
b10 t
0x
b101000 >
b101000 ~
0$
1,
#56
b10001000 2
#60
0,
#65
1+"
b1 ("
1;
0u
0q
b0 s
b0 m
03"
07"
b0 <
b0 I
b0 l
b0 |
b0 /"
b0 5"
b0 }
b0 !
b0 3
b0 C
b0 E
b0 H
b0 z
b0 ,"
b0 ?"
b10 {
0G
1D
0#"
1j
1)"
b11010000010 8
b11010000010 !"
b11010000010 ""
1`
1b
1f
1h
b11 ^
b11 d
b1111 \
0'"
0J
b1001111 #
b1001111 5
b1001111 M
b1001111 ;"
b100 *
b100 =
b100 &"
b100 <"
1$
b1001111 (
b1001111 9
b1001111 %"
b1001111 ="
b0 %
b0 6
b0 F
b0 K
b0 ]
b0 e
0i
b100001 >
b100001 ~
b100 &
b100 7
b100 L
b100 O
b0 W
0[
1,
#70
0,
#75
b0 !
b0 3
b0 C
b0 E
b0 H
b0 z
b0 ,"
b0 ?"
b0 {
1G
0D
1#"
0j
0)"
b1000000001000 8
b1000000001000 !"
b1000000001000 ""
1'"
1J
1"
b0 n
0r
b0 )
b0 :
b0 k
b0 y
b0 t
0v
b100010 >
b100010 ~
0$
1,
#80
0,
#85
0+"
1u
1w
1o
1q
b0 ("
0;
b11 s
b11 m
11"
13"
17"
19"
b1111 <
b1111 I
b1111 l
b1111 |
b11 /"
b11 5"
b1111 }
b1111 !
b1111 3
b1111 C
b1111 E
b1111 H
b1111 z
b1111 ,"
b1111 ?"
b10 {
0G
1D
0#"
1j
1)"
b11010000010 8
b11010000010 !"
b11010000010 ""
0b
0h
1R
0T
1X
b10 ^
b10 d
b10 P
b10 V
b1010 \
b1010 N
0'"
0J
b10101010 #
b10101010 5
b10101010 M
b10101010 ;"
b101 *
b101 =
b101 &"
b101 <"
b100011 >
b100011 ~
1$
1i
b11 e
1g
1c
b111110101010 (
b111110101010 9
b111110101010 %"
b111110101010 ="
b1111 %
b1111 6
b1111 F
b1111 K
b1111 ]
b11 _
1a
1,
#90
0,
#95
b1111 !
b1111 3
b1111 C
b1111 E
b1111 H
b1111 z
b1111 ,"
b1111 ?"
b0 {
1G
0D
1#"
0j
0)"
b1000000001000 8
b1000000001000 !"
b1000000001000 ""
1'"
1J
0"
1p
b11 n
1r
1v
b1111 )
b1111 :
b1111 k
b1111 y
b11 t
1x
b100000 >
b100000 ~
0$
1,
#100
0,
#105
0u
0q
b1 s
b10 m
1*"
03"
09"
b1001 <
b1001 I
b1001 l
b1001 |
b10 ("
1@
b10 /"
b10 5"
b11001 }
b1010 !
b1010 3
b1010 C
b1010 E
b1010 H
b1010 z
b1010 ,"
b1010 ?"
b11 {
0G
1D
0#"
1j
1)"
b11011000010 8
b11011000010 !"
b11011000010 ""
0f
0R
b0 d
b0 P
b1000 \
b10 N
0'"
0J
b101000 #
b101000 5
b101000 M
b101000 ;"
b110 *
b110 =
b110 &"
b110 <"
1$
b10 e
0i
b101000101000 (
b101000101000 9
b101000101000 %"
b101000101000 ="
b1010 %
b1010 6
b1010 F
b1010 K
b1010 ]
b10 _
0c
b10 W
1Y
0U
b1010001 >
b1010001 ~
b1010 &
b1010 7
b1010 L
b1010 O
b10 Q
1S
1,
#110
0,
#115
07"
0*"
11"
19"
b0 ("
0@
b10 /"
b1 5"
b1001 !
b1001 3
b1001 C
b1001 E
b1001 H
b1001 z
b1001 ,"
b1001 ?"
b0 {
1G
0D
1#"
0j
0)"
b1000000001000 8
b1000000001000 !"
b1000000001000 ""
0u
1o
b1 s
b10 m
b1001 <
b1001 I
b1001 l
b1001 |
b1001 }
1'"
1J
1'
b10 n
0r
b1001 )
b1001 :
b1001 k
b1001 y
b1 t
0v
b1010100 >
b1010100 ~
0$
1,
#116
b10101001 2
#120
0,
#125
0o
b0 m
09"
b1 <
b1 I
b1 l
b1 |
b0 5"
b1 }
b1000 !
b1000 3
b1000 C
b1000 E
b1000 H
b1000 z
b1000 ,"
b1000 ?"
b1 {
0G
1D
0#"
1)"
b1001000010 8
b1001000010 !"
b1001000010 ""
1f
1T
0X
b10 d
b1 P
b0 V
b1010 \
b100 N
0'"
0J
b1001010 #
b1001010 5
b1001010 M
b1001010 ;"
b111 *
b111 =
b111 &"
b111 <"
1$
b100001001010 (
b100001001010 9
b100001001010 %"
b100001001010 ="
b1000 %
b1000 6
b1000 F
b1000 K
b1000 ]
b0 e
0g
b10101 >
b10101 ~
b10 &
b10 7
b10 L
b10 O
b0 Q
0S
1,
#130
0,
#135
1o
b10 m
11"
19"
b1001 <
b1001 I
b1001 l
b1001 |
b10 /"
b1 5"
b1001 }
b1001 !
b1001 3
b1001 C
b1001 E
b1001 H
b1001 z
b1001 ,"
b1001 ?"
b0 {
1G
0D
1#"
0)"
b1000000001000 8
b1000000001000 !"
b1000000001000 ""
1'"
1J
0'
b10000 >
b10000 ~
0$
1,
#136
b11001010 2
#140
0,
#145
1u
0w
b10 s
17"
09"
b1010 <
b1010 I
b1010 l
b1010 |
b10 5"
b1010 }
b1010 !
b1010 3
b1010 C
b1010 E
b1010 H
b1010 z
b1010 ,"
b1010 ?"
b10 {
0G
1D
0#"
1j
1)"
b11010000010 8
b11010000010 !"
b11010000010 ""
1b
0f
0T
1X
b11 ^
b0 d
b0 P
b10 V
b1100 \
b10 N
0'"
0J
b101100 #
b101100 5
b101100 M
b101100 ;"
b1000 *
b1000 =
b1000 &"
b1000 <"
1$
b101000101100 (
b101000101100 9
b101000101100 %"
b101000101100 ="
b1010 %
b1010 6
b1010 F
b1010 K
b1010 ]
b10 e
1g
b0 W
0Y
b100001 >
b100001 ~
b100 &
b100 7
b100 L
b100 O
b1 Q
1U
1,
#150
0,
#155
b1010 !
b1010 3
b1010 C
b1010 E
b1010 H
b1010 z
b1010 ,"
b1010 ?"
b0 {
1G
0D
1#"
0j
0)"
b1000000001000 8
b1000000001000 !"
b1000000001000 ""
1'"
1J
1v
b1010 )
b1010 :
b1010 k
b1010 y
b10 t
0x
b100000 >
b100000 ~
0$
1,
#160
0,
#165
1q
b11 m
1*"
13"
07"
b1110 <
b1110 I
b1110 l
b1110 |
b10 ("
1@
b11 /"
b0 5"
b11110 }
b1100 !
b1100 3
b1100 C
b1100 E
b1100 H
b1100 z
b1100 ,"
b1100 ?"
b1 {
0G
1D
0#"
1)"
b1001000010 8
b1001000010 !"
b1001000010 ""
0`
0b
1h
1R
b0 ^
b1 d
b10 P
b1 \
b1010 N
0'"
0J
b10100001 #
b10100001 5
b10100001 M
b10100001 ;"
b1001 *
b1001 =
b1001 &"
b1001 <"
1$
b0 e
0g
b110010100001 (
b110010100001 9
b110010100001 %"
b110010100001 ="
b1100 %
b1100 6
b1100 F
b1100 K
b1100 ]
b11 _
1c
b10 W
1Y
b10001 >
b10001 ~
b10 &
b10 7
b10 L
b10 O
b0 Q
0U
1,
#170
0,
#175
03"
0q
b10 /"
b10 m
0*"
17"
b1010 <
b1010 I
b1010 l
b1010 |
b0 ("
0@
b10 5"
b1010 }
b1010 !
b1010 3
b1010 C
b1010 E
b1010 H
b1010 z
b1010 ,"
b1010 ?"
b0 {
1G
0D
1#"
0)"
b1000000001000 8
b1000000001000 !"
b1000000001000 ""
1'"
1J
1'
b10100 >
b10100 ~
0$
1,
#176
b11101011 2
#180
0,
#185
1w
b11 s
01"
07"
19"
b1011 <
b1011 I
b1011 l
b1011 |
b0 /"
b1 5"
b1011 }
b1 !
b1 3
b1 C
b1 E
b1 H
b1 z
b1 ,"
b1 ?"
b11 {
0G
1D
0#"
1j
1)"
b11011000010 8
b11011000010 !"
b11011000010 ""
1`
1f
1T
b10 ^
b11 d
b11 P
b1011 \
b1110 N
0'"
0J
b11101011 #
b11101011 5
b11101011 M
b11101011 ;"
b1010 *
b1010 =
b1010 &"
b1010 <"
1$
b1 e
1i
0c
b111101011 (
b111101011 9
b111101011 %"
b111101011 ="
b1 %
b1 6
b1 F
b1 K
b1 ]
b0 _
0a
b1010101 >
b1010101 ~
b1010 &
b1010 7
b1010 L
b1010 O
b10 Q
1S
1,
#190
0,
#195
17"
11"
03"
19"
b10 /"
b11 5"
b1011 !
b1011 3
b1011 C
b1011 E
b1011 H
b1011 z
b1011 ,"
b1011 ?"
b0 {
1G
0D
1#"
0j
0)"
b1000000001000 8
b1000000001000 !"
b1000000001000 ""
1u
1w
0q
b11 s
b10 m
b1011 <
b1011 I
b1011 l
b1011 |
b1011 }
1'"
1J
0'
b1011 )
b1011 :
b1011 k
b1011 y
b11 t
1x
b1010000 >
b1010000 ~
0$
1,
#196
b100001100 2
#200
0,
#205
0u
0w
0o
1q
b0 s
b1 m
b100 <
b100 I
b100 l
b100 |
b100 }
b100 {
0G
1D
0#"
1j
1)"
b11100000010 8
b11100000010 !"
b11100000010 ""
0`
0f
0h
0X
1Z
b0 ^
b0 d
b1 V
b0 \
b1101 N
0'"
0J
b11010000 #
b11010000 5
b11010000 M
b11010000 ;"
b1011 *
b1011 =
b1011 &"
b1011 <"
1$
b11 e
1g
b101111010000 (
b101111010000 9
b101111010000 %"
b101111010000 ="
b1011 %
b1011 6
b1011 F
b1011 K
b1011 ]
b10 _
1a
b1110001 >
b1110001 ~
b1110 &
b1110 7
b1110 L
b1110 O
b11 Q
1U
1,
#210
0,
#215
01"
07"
09"
b0 5"
13"
b1 /"
b100 !
b100 3
b100 C
b100 E
b100 H
b100 z
b100 ,"
b100 ?"
b0 {
1G
0D
1#"
0j
0)"
b1000000001000 8
b1000000001000 !"
b1000000001000 ""
0u
0w
0o
b0 s
b1 m
b100 <
b100 I
b100 l
b100 |
b100 }
1'"
1J
0p
b1 n
1r
0v
b100 )
b100 :
b100 k
b100 y
b0 t
0x
b1110000 >
b1110000 ~
0$
1,
#216
b101001110 2
#220
0,
#225
0#"
1-"
b1001 8
b1001 !"
b1001 ""
0R
b1 P
b101 N
0'"
0J
b1010000 #
b1010000 5
b1010000 M
b1010000 ;"
b1100 *
b1100 =
b1100 &"
b1100 <"
1$
0i
b0 e
0g
b1010000 (
b1010000 9
b1010000 %"
b1010000 ="
b0 %
b0 6
b0 F
b0 K
b0 ]
b0 _
0a
1[
b1101001 >
b1101001 ~
b1101 &
b1101 7
b1101 L
b1101 O
b1 W
0Y
1,
#230
0,
#235
1#"
0-"
b1000000001000 8
b1000000001000 !"
b1000000001000 ""
1'"
1J
b1 0"
02"
08"
b100 +
b100 ?
b100 ."
b0 6"
0:"
b1101000 >
b1101000 ~
0$
1,
#236
b1110 -
b1110 4
b1110 B
b101101111 2
#240
0,
#245
1u
1o
b10 s
b11 m
11"
17"
b1110 <
b1110 I
b1110 l
b1110 |
b11 /"
b10 5"
b1110 }
b1110 !
b1110 3
b1110 C
b1110 E
b1110 H
b1110 z
b1110 ,"
b1110 ?"
b10 {
0G
1A
0#"
1j
1)"
b11010000100 8
b11010000100 !"
b11010000100 ""
1X
b11 V
b111 N
0'"
0J
b1110000 (
b1110000 9
b1110000 %"
b1110000 ="
b1110000 #
b1110000 5
b1110000 M
b1110000 ;"
b1101 *
b1101 =
b1101 &"
b1101 <"
1$
b101001 >
b101001 ~
b101 &
b101 7
b101 L
b101 O
b1 Q
0S
1,
#250
0,
#255
b1110 !
b1110 3
b1110 C
b1110 E
b1110 H
b1110 z
b1110 ,"
b1110 ?"
b0 {
1G
0A
1#"
0j
0)"
b1000000001000 8
b1000000001000 !"
b1000000001000 ""
1'"
1J
b11 n
1p
b1110 )
b1110 :
b1110 k
b1110 y
b10 t
1v
b101000 >
b101000 ~
0$
1,
#256
b110010000 2
#260
0,
#265
11"
13"
17"
09"
b11 /"
b10 5"
b1110 !
b1110 3
b1110 C
b1110 E
b1110 H
b1110 z
b1110 ,"
b1110 ?"
1@"
1>"
b1000000111000 8
b1000000111000 !"
b1000000111000 ""
0T
0X
0Z
b0 P
b0 V
b0 N
0'"
0J
b0 (
b0 9
b0 %"
b0 ="
b0 #
b0 5
b0 M
b0 ;"
b1110 *
b1110 =
b1110 &"
b1110 <"
1$
b111001 >
b111001 ~
b111 &
b111 7
b111 L
b111 O
b11 W
1Y
1,
#270
0,
#275
0@"
0>"
b1000000001000 8
b1000000001000 !"
b1000000001000 ""
1`
1b
1f
1h
1T
b11 ^
b11 d
b1 P
1'"
1J
b1111 \
b100 N
b111000 >
b111000 ~
0$
b1001111 (
b1001111 9
b1001111 %"
b1001111 ="
b1001111 #
b1001111 5
b1001111 M
b1001111 ;"
b1111 *
b1111 =
b1111 &"
b1111 <"
1,
#280
0,
#285
1w
b11 s
19"
b1111 <
b1111 I
b1111 l
b1111 |
b11 5"
b1111 }
b1111 !
b1111 3
b1111 C
b1111 E
b1111 H
b1111 z
b1111 ,"
b1111 ?"
b10 {
0G
1D
0#"
1j
1)"
b11010000010 8
b11010000010 !"
b11010000010 ""
0`
0b
0f
1X
1Z
b0 ^
b1 d
b11 V
b1 \
b111 N
0'"
0J
b1110001 #
b1110001 5
b1110001 M
b1110001 ;"
b10000 *
b10000 =
b10000 &"
b10000 <"
1$
1i
b11 e
1g
1c
b111101110001 (
b111101110001 9
b111101110001 %"
b111101110001 ="
b1111 %
b1111 6
b1111 F
b1111 K
b1111 ]
b11 _
1a
0[
b100001 >
b100001 ~
b100 &
b100 7
b100 L
b100 O
b0 W
0Y
1,
#290
0,
#295
b1111 !
b1111 3
b1111 C
b1111 E
b1111 H
b1111 z
b1111 ,"
b1111 ?"
b0 {
1G
0D
1#"
0j
0)"
b1000000001000 8
b1000000001000 !"
b1000000001000 ""
1'"
1J
b1111 )
b1111 :
b1111 k
b1111 y
b11 t
1x
b100000 >
b100000 ~
0$
1,
#300
0,
#305
11"
13"
17"
19"
b11 /"
b11 5"
b1111 !
b1111 3
b1111 C
b1111 E
b1111 H
b1111 z
b1111 ,"
b1111 ?"
1@"
1>"
b1000000111000 8
b1000000111000 !"
b1000000111000 ""
0T
0X
b0 P
b1 V
b1 N
0'"
0J
b10001 #
b10001 5
b10001 M
b10001 ;"
b10001 *
b10001 =
b10001 &"
b10001 <"
1$
b1 e
0g
0c
b100010001 (
b100010001 9
b100010001 %"
b100010001 ="
b1 %
b1 6
b1 F
b1 K
b1 ]
b0 _
0a
1[
b111001 >
b111001 ~
b111 &
b111 7
b111 L
b111 O
b11 W
1Y
1,
#310
0,
#315
0@"
0>"
b1000000001000 8
b1000000001000 !"
b1000000001000 ""
1`
1f
0h
1T
0Z
b10 ^
b10 d
b1 P
b0 V
1'"
1J
b1010 \
b100 N
b111000 >
b111000 ~
0$
b101001010 (
b101001010 9
b101001010 %"
b101001010 ="
b1001010 #
b1001010 5
b1001010 M
b1001010 ;"
b10010 *
b10010 =
b10010 &"
b10010 <"
1,
#320
0,
#325
0w
0q
b10 s
b10 m
03"
09"
b1010 <
b1010 I
b1010 l
b1010 |
b10 /"
b10 5"
b1010 }
b1010 !
b1010 3
b1010 C
b1010 E
b1010 H
b1010 z
b1010 ,"
b1010 ?"
b10 {
0G
1D
0#"
1j
1)"
b11010000010 8
b11010000010 !"
b11010000010 ""
0`
1X
1Z
b0 ^
b11 V
b10 \
b111 N
0'"
0J
b1110010 #
b1110010 5
b1110010 M
b1110010 ;"
b10011 *
b10011 =
b10011 &"
b10011 <"
1$
0i
b10 e
1g
b101001110010 (
b101001110010 9
b101001110010 %"
b101001110010 ="
b1010 %
b1010 6
b1010 F
b1010 K
b1010 ]
b10 _
1a
0[
b100001 >
b100001 ~
b100 &
b100 7
b100 L
b100 O
b0 W
0Y
1,
#330
0,
