Proyecto2/uP_tb.vcd
$date
	Sun Nov 22 15:15:37 2020
$end
$version
	Icarus Verilog
$end
$timescale
	1ps
$end
$scope module testbench $end
$var wire 4 ! data_bus [3:0] $end
$var wire 1 " z_flag $end
$var wire 8 # program_byte [7:0] $end
$var wire 1 $ phase $end
$var wire 4 % oprnd [3:0] $end
$var wire 4 & instr [3:0] $end
$var wire 1 ' c_flag $end
$var wire 12 ( address_RAM [11:0] $end
$var wire 4 ) accu [3:0] $end
$var wire 12 * PC [11:0] $end
$var wire 4 + FF_out [3:0] $end
$var reg 1 , clock $end
$var reg 4 - pushbuttons [3:0] $end
$var reg 1 . reset $end
$var integer 32 / immediateDelay [31:0] $end
$var integer 32 0 jumpDelay [31:0] $end
$var integer 32 1 memoryDelay [31:0] $end
$var integer 32 2 nota [31:0] $end
$scope module uPmodule $end
$var wire 1 , clock $end
$var wire 4 3 data_bus [3:0] $end
$var wire 4 4 pushbuttons [3:0] $end
$var wire 1 . reset $end
$var wire 1 " z_flag $end
$var wire 8 5 program_byte [7:0] $end
$var wire 1 $ phase $end
$var wire 4 6 oprnd [3:0] $end
$var wire 4 7 instr [3:0] $end
$var wire 13 8 dec [12:0] $end
$var wire 1 ' c_flag $end
$var wire 12 9 address_RAM [11:0] $end
$var wire 4 : accu [3:0] $end
$var wire 1 ; ZE $end
$var wire 4 < SALU [3:0] $end
$var wire 12 = PC [11:0] $end
$var wire 7 > J [6:0] $end
$var wire 4 ? FF_out [3:0] $end
$var wire 1 @ C $end
$scope module BT1 $end
$var wire 1 A EN $end
$var wire 4 B I1 [0:3] $end
$var wire 4 C Y1 [0:3] $end
$upscope $end
$scope module BT2 $end
$var wire 1 D EN $end
$var wire 4 E Y2 [0:3] $end
$var wire 4 F I2 [0:3] $end
$upscope $end
$scope module BT3 $end
$var wire 1 G EN $end
$var wire 4 H Y3 [0:3] $end
$var wire 4 I I3 [0:3] $end
$upscope $end
$scope module Fetch $end
$var wire 1 , CLK $end
$var wire 1 J EN $end
$var wire 1 . RESET $end
$var wire 4 K Q6 [0:3] $end
$var wire 4 L Q5 [0:3] $end
$var wire 8 M D5 [0:7] $end
$scope module F8_1 $end
$var wire 1 , CLK $end
$var wire 4 N D4 [0:3] $end
$var wire 1 J EN $end
$var wire 1 . RESET $end
$var wire 4 O Q4 [0:3] $end
$scope module F4_1 $end
$var wire 1 , CLK $end
$var wire 2 P D2 [0:1] $end
$var wire 1 J EN $end
$var wire 1 . RESET $end
$var wire 2 Q Q2 [0:1] $end
$scope module F2_1 $end
$var wire 1 , CLK $end
$var wire 1 R D $end
$var wire 1 J EN $end
$var wire 1 . RESET $end
$var reg 1 S Q $end
$upscope $end
$scope module F2_2 $end
$var wire 1 , CLK $end
$var wire 1 T D $end
$var wire 1 J EN $end
$var wire 1 . RESET $end
$var reg 1 U Q $end
$upscope $end
$upscope $end
$scope module F4_2 $end
$var wire 1 , CLK $end
$var wire 2 V D2 [0:1] $end
$var wire 1 J EN $end
$var wire 1 . RESET $end
$var wire 2 W Q2 [0:1] $end
$scope module F2_1 $end
$var wire 1 , CLK $end
$var wire 1 X D $end
$var wire 1 J EN $end
$var wire 1 . RESET $end
$var reg 1 Y Q $end
$upscope $end
$scope module F2_2 $end
$var wire 1 , CLK $end
$var wire 1 Z D $end
$var wire 1 J EN $end
$var wire 1 . RESET $end
$var reg 1 [ Q $end
$upscope $end
$upscope $end
$upscope $end
$scope module F8_2 $end
$var wire 1 , CLK $end
$var wire 4 \ D4 [0:3] $end
$var wire 1 J EN $end
$var wire 1 . RESET $end
$var wire 4 ] Q4 [0:3] $end
$scope module F4_1 $end
$var wire 1 , CLK $end
$var wire 2 ^ D2 [0:1] $end
$var wire 1 J EN $end
$var wire 1 . RESET $end
$var wire 2 _ Q2 [0:1] $end
$scope module F2_1 $end
$var wire 1 , CLK $end
$var wire 1 ` D $end
$var wire 1 J EN $end
$var wire 1 . RESET $end
$var reg 1 a Q $end
$upscope $end
$scope module F2_2 $end
$var wire 1 , CLK $end
$var wire 1 b D $end
$var wire 1 J EN $end
$var wire 1 . RESET $end
$var reg 1 c Q $end
$upscope $end
$upscope $end
$scope module F4_2 $end
$var wire 1 , CLK $end
$var wire 2 d D2 [0:1] $end
$var wire 1 J EN $end
$var wire 1 . RESET $end
$var wire 2 e Q2 [0:1] $end
$scope module F2_1 $end
$var wire 1 , CLK $end
$var wire 1 f D $end
$var wire 1 J EN $end
$var wire 1 . RESET $end
$var reg 1 g Q $end
$upscope $end
$scope module F2_2 $end
$var wire 1 , CLK $end
$var wire 1 h D $end
$var wire 1 J EN $end
$var wire 1 . RESET $end
$var reg 1 i Q $end
$upscope $end
$upscope $end
$upscope $end
$upscope $end
$scope module aaaacccuuuu $end
$var wire 1 , CLK $end
$var wire 1 j EN $end
$var wire 1 . RESET $end
$var wire 4 k Q4 [0:3] $end
$var wire 4 l D4 [0:3] $end
$scope module F4_1 $end
$var wire 1 , CLK $end
$var wire 2 m D2 [0:1] $end
$var wire 1 j EN $end
$var wire 1 . RESET $end
$var wire 2 n Q2 [0:1] $end
$scope module F2_1 $end
$var wire 1 , CLK $end
$var wire 1 o D $end
$var wire 1 j EN $end
$var wire 1 . RESET $end
$var reg 1 p Q $end
$upscope $end
$scope module F2_2 $end
$var wire 1 , CLK $end
$var wire 1 q D $end
$var wire 1 j EN $end
$var wire 1 . RESET $end
$var reg 1 r Q $end
$upscope $end
$upscope $end
$scope module F4_2 $end
$var wire 1 , CLK $end
$var wire 2 s D2 [0:1] $end
$var wire 1 j EN $end
$var wire 1 . RESET $end
$var wire 2 t Q2 [0:1] $end
$scope module F2_1 $end
$var wire 1 , CLK $end
$var wire 1 u D $end
$var wire 1 j EN $end
$var wire 1 . RESET $end
$var reg 1 v Q $end
$upscope $end
$scope module F2_2 $end
$var wire 1 , CLK $end
$var wire 1 w D $end
$var wire 1 j EN $end
$var wire 1 . RESET $end
$var reg 1 x Q $end
$upscope $end
$upscope $end
$upscope $end
$scope module alu $end
$var wire 4 y A [3:0] $end
$var wire 4 z B [3:0] $end
$var wire 3 { COM [2:0] $end
$var wire 1 ; zero $end
$var wire 1 @ carry $end
$var wire 4 | R [3:0] $end
$var reg 5 } PM [4:0] $end
$upscope $end
$scope module code $end
$var wire 7 ~ I [6:0] $end
$var wire 13 !" O [12:0] $end
$var reg 13 "" s [12:0] $end
$upscope $end
$scope module contador $end
$var wire 1 #" En $end
$var wire 1 $" NBL $end
$var wire 1 , clk $end
$var wire 12 %" load [11:0] $end
$var wire 1 . reset $end
$var reg 12 &" s [11:0] $end
$upscope $end
$scope module fase $end
$var wire 1 , CLK $end
$var wire 1 . RESET $end
$var wire 1 $ Q $end
$scope module FT $end
$var wire 1 , CLK $end
$var wire 1 '" D $end
$var wire 1 . RESET $end
$var reg 1 $ Q $end
$upscope $end
$upscope $end
$scope module flags $end
$var wire 1 , CLK $end
$var wire 2 (" D2 [1:0] $end
$var wire 1 )" EN $end
$var wire 1 . RESET $end
$var wire 1 " Q2Z $end
$var wire 1 ' Q2C $end
$scope module F2_1 $end
$var wire 1 , CLK $end
$var wire 1 *" D $end
$var wire 1 )" EN $end
$var wire 1 . RESET $end
$var reg 1 ' Q $end
$upscope $end
$scope module F2_2 $end
$var wire 1 , CLK $end
$var wire 1 +" D $end
$var wire 1 )" EN $end
$var wire 1 . RESET $end
$var reg 1 " Q $end
$upscope $end
$upscope $end
$scope module out $end
$var wire 1 , CLK $end
$var wire 4 ," D4 [0:3] $end
$var wire 1 -" EN $end
$var wire 1 . RESET $end
$var wire 4 ." Q4 [0:3] $end
$scope module F4_1 $end
$var wire 1 , CLK $end
$var wire 2 /" D2 [0:1] $end
$var wire 1 -" EN $end
$var wire 1 . RESET $end
$var wire 2 0" Q2 [0:1] $end
$scope module F2_1 $end
$var wire 1 , CLK $end
$var wire 1 1" D $end
$var wire 1 -" EN $end
$var wire 1 . RESET $end
$var reg 1 2" Q $end
$upscope $end
$scope module F2_2 $end
$var wire 1 , CLK $end
$var wire 1 3" D $end
$var wire 1 -" EN $end
$var wire 1 . RESET $end
$var reg 1 4" Q $end
$upscope $end
$upscope $end
$scope module F4_2 $end
$var wire 1 , CLK $end
$var wire 2 5" D2 [0:1] $end
$var wire 1 -" EN $end
$var wire 1 . RESET $end
$var wire 2 6" Q2 [0:1] $end
$scope module F2_1 $end
$var wire 1 , CLK $end
$var wire 1 7" D $end
$var wire 1 -" EN $end
$var wire 1 . RESET $end
$var reg 1 8" Q $end
$upscope $end
$scope module F2_2 $end
$var wire 1 , CLK $end
$var wire 1 9" D $end
$var wire 1 -" EN $end
$var wire 1 . RESET $end
$var reg 1 :" Q $end
$upscope $end
$upscope $end
$upscope $end
$scope module prom $end
$var wire 8 ;" codigo [7:0] $end
$var wire 12 <" dire [11:0] $end
$upscope $end
$scope module ram $end
$var wire 12 =" address [0:11] $end
$var wire 1 >" cs $end
$var wire 4 ?" data [0:3] $end
$var wire 1 @" we $end
$var reg 4 A" dataout [0:3] $end
$upscope $end
$upscope $end
$upscope $end
$scope module testbench1 $end
$var wire 4 B" Q4 [0:3] $end
$var wire 2 C" Q2 [0:1] $end
$var wire 1 D" Q $end
$var reg 1 E" CLK $end
$var reg 1 F" D $end
$var reg 2 G" D2 [0:1] $end
$var reg 4 H" D4 [0:3] $end
$var reg 1 I" EN $end
$var reg 1 J" RESET $end
$scope module F1 $end
$var wire 1 E" CLK $end
$var wire 1 F" D $end
$var wire 1 I" EN $end
$var wire 1 J" RESET $end
$var reg 1 D" Q $end
$upscope $end
$scope module F2 $end
$var wire 1 E" CLK $end
$var wire 2 K" D2 [0:1] $end
$var wire 1 I" EN $end
$var wire 1 J" RESET $end
$var wire 2 L" Q2 [0:1] $end
$scope module F2_1 $end
$var wire 1 E" CLK $end
$var wire 1 M" D $end
$var wire 1 I" EN $end
$var wire 1 J" RESET $end
$var reg 1 N" Q $end
$upscope $end
$scope module F2_2 $end
$var wire 1 E" CLK $end
$var wire 1 O" D $end
$var wire 1 I" EN $end
$var wire 1 J" RESET $end
$var reg 1 P" Q $end
$upscope $end
$upscope $end
$scope module F4 $end
$var wire 1 E" CLK $end
$var wire 4 Q" D4 [0:3] $end
$var wire 1 I" EN $end
$var wire 1 J" RESET $end
$var wire 4 R" Q4 [0:3] $end
$scope module F4_1 $end
$var wire 1 E" CLK $end
$var wire 2 S" D2 [0:1] $end
$var wire 1 I" EN $end
$var wire 1 J" RESET $end
$var wire 2 T" Q2 [0:1] $end
$scope module F2_1 $end
$var wire 1 E" CLK $end
$var wire 1 U" D $end
$var wire 1 I" EN $end
$var wire 1 J" RESET $end
$var reg 1 V" Q $end
$upscope $end
$scope module F2_2 $end
$var wire 1 E" CLK $end
$var wire 1 W" D $end
$var wire 1 I" EN $end
$var wire 1 J" RESET $end
$var reg 1 X" Q $end
$upscope $end
$upscope $end
$scope module F4_2 $end
$var wire 1 E" CLK $end
$var wire 2 Y" D2 [0:1] $end
$var wire 1 I" EN $end
$var wire 1 J" RESET $end
$var wire 2 Z" Q2 [0:1] $end
$scope module F2_1 $end
$var wire 1 E" CLK $end
$var wire 1 [" D $end
$var wire 1 I" EN $end
$var wire 1 J" RESET $end
$var reg 1 \" Q $end
$upscope $end
$scope module F2_2 $end
$var wire 1 E" CLK $end
$var wire 1 ]" D $end
$var wire 1 I" EN $end
$var wire 1 J" RESET $end
$var reg 1 ^" Q $end
$upscope $end
$upscope $end
$upscope $end
$upscope $end
$scope module testbench10 $end
$var wire 4 _" Q6 [0:3] $end
$var wire 4 `" Q5 [0:3] $end
$var wire 4 a" Q4 [0:3] $end
$var wire 2 b" Q2 [0:1] $end
$var wire 1 c" Q $end
$var reg 1 d" CLK $end
$var reg 1 e" D $end
$var reg 2 f" D2 [0:1] $end
$var reg 4 g" D4 [0:3] $end
$var reg 8 h" D5 [0:7] $end
$var reg 1 i" EN $end
$var reg 1 j" RESET $end
$scope module F1 $end
$var wire 1 d" CLK $end
$var wire 1 e" D $end
$var wire 1 i" EN $end
$var wire 1 j" RESET $end
$var reg 1 c" Q $end
$upscope $end
$scope module F2 $end
$var wire 1 d" CLK $end
$var wire 2 k" D2 [0:1] $end
$var wire 1 i" EN $end
$var wire 1 j" RESET $end
$var wire 2 l" Q2 [0:1] $end
$scope module F2_1 $end
$var wire 1 d" CLK $end
$var wire 1 m" D $end
$var wire 1 i" EN $end
$var wire 1 j" RESET $end
$var reg 1 n" Q $end
$upscope $end
$scope module F2_2 $end
$var wire 1 d" CLK $end
$var wire 1 o" D $end
$var wire 1 i" EN $end
$var wire 1 j" RESET $end
$var reg 1 p" Q $end
$upscope $end
$upscope $end
$scope module F4 $end
$var wire 1 d" CLK $end
$var wire 4 q" D4 [0:3] $end
$var wire 1 i" EN $end
$var wire 1 j" RESET $end
$var wire 4 r" Q4 [0:3] $end
$scope module F4_1 $end
$var wire 1 d" CLK $end
$var wire 2 s" D2 [0:1] $end
$var wire 1 i" EN $end
$var wire 1 j" RESET $end
$var wire 2 t" Q2 [0:1] $end
$scope module F2_1 $end
$var wire 1 d" CLK $end
$var wire 1 u" D $end
$var wire 1 i" EN $end
$var wire 1 j" RESET $end
$var reg 1 v" Q $end
$upscope $end
$scope module F2_2 $end
$var wire 1 d" CLK $end
$var wire 1 w" D $end
$var wire 1 i" EN $end
$var wire 1 j" RESET $end
$var reg 1 x" Q $end
$upscope $end
$upscope $end
$scope module F4_2 $end
$var wire 1 d" CLK $end
$var wire 2 y" D2 [0:1] $end
$var wire 1 i" EN $end
$var wire 1 j" RESET $end
$var wire 2 z" Q2 [0:1] $end
$scope module F2_1 $end
$var wire 1 d" CLK $end
$var wire 1 {" D $end
$var wire 1 i" EN $end
$var wire 1 j" RESET $end
$var reg 1 |" Q $end
$upscope $end
$scope module F2_2 $end
$var wire 1 d" CLK $end
$var wire 1 }" D $end
$var wire 1 i" EN $end
$var wire 1 j" RESET $end
$var reg 1 ~" Q $end
$upscope $end
$upscope $end
$upscope $end
$scope module Fetch $end
$var wire 1 d" CLK $end
$var wire 8 !# D5 [0:7] $end
$var wire 1 i" EN $end
$var wire 1 j" RESET $end
$var wire 4 "# Q6 [0:3] $end
$var wire 4 ## Q5 [0:3] $end
$scope module F8_1 $end
$var wire 1 d" CLK $end
$var wire 4 $# D4 [0:3] $end
$var wire 1 i" EN $end
$var wire 1 j" RESET $end
$var wire 4 %# Q4 [0:3] $end
$scope module F4_1 $end
$var wire 1 d" CLK $end
$var wire 2 &# D2 [0:1] $end
$var wire 1 i" EN $end
$var wire 1 j" RESET $end
$var wire 2 '# Q2 [0:1] $end
$scope module F2_1 $end
$var wire 1 d" CLK $end
$var wire 1 (# D $end
$var wire 1 i" EN $end
$var wire 1 j" RESET $end
$var reg 1 )# Q $end
$upscope $end
$scope module F2_2 $end
$var wire 1 d" CLK $end
$var wire 1 *# D $end
$var wire 1 i" EN $end
$var wire 1 j" RESET $end
$var reg 1 +# Q $end
$upscope $end
$upscope $end
$scope module F4_2 $end
$var wire 1 d" CLK $end
$var wire 2 ,# D2 [0:1] $end
$var wire 1 i" EN $end
$var wire 1 j" RESET $end
$var wire 2 -# Q2 [0:1] $end
$scope module F2_1 $end
$var wire 1 d" CLK $end
$var wire 1 .# D $end
$var wire 1 i" EN $end
$var wire 1 j" RESET $end
$var reg 1 /# Q $end
$upscope $end
$scope module F2_2 $end
$var wire 1 d" CLK $end
$var wire 1 0# D $end
$var wire 1 i" EN $end
$var wire 1 j" RESET $end
$var reg 1 1# Q $end
$upscope $end
$upscope $end
$upscope $end
$scope module F8_2 $end
$var wire 1 d" CLK $end
$var wire 4 2# D4 [0:3] $end
$var wire 1 i" EN $end
$var wire 1 j" RESET $end
$var wire 4 3# Q4 [0:3] $end
$scope module F4_1 $end
$var wire 1 d" CLK $end
$var wire 2 4# D2 [0:1] $end
$var wire 1 i" EN $end
$var wire 1 j" RESET $end
$var wire 2 5# Q2 [0:1] $end
$scope module F2_1 $end
$var wire 1 d" CLK $end
$var wire 1 6# D $end
$var wire 1 i" EN $end
$var wire 1 j" RESET $end
$var reg 1 7# Q $end
$upscope $end
$scope module F2_2 $end
$var wire 1 d" CLK $end
$var wire 1 8# D $end
$var wire 1 i" EN $end
$var wire 1 j" RESET $end
$var reg 1 9# Q $end
$upscope $end
$upscope $end
$scope module F4_2 $end
$var wire 1 d" CLK $end
$var wire 2 :# D2 [0:1] $end
$var wire 1 i" EN $end
$var wire 1 j" RESET $end
$var wire 2 ;# Q2 [0:1] $end
$scope module F2_1 $end
$var wire 1 d" CLK $end
$var wire 1 <# D $end
$var wire 1 i" EN $end
$var wire 1 j" RESET $end
$var reg 1 =# Q $end
$upscope $end
$scope module F2_2 $end
$var wire 1 d" CLK $end
$var wire 1 ># D $end
$var wire 1 i" EN $end
$var wire 1 j" RESET $end
$var reg 1 ?# Q $end
$upscope $end
$upscope $end
$upscope $end
$upscope $end
$upscope $end
$scope module testbench11 $end
$var wire 1 @# Q2Z $end
$var wire 1 A# Q2C $end
$var wire 1 B# Q $end
$var reg 1 C# CLK $end
$var reg 1 D# D $end
$var reg 2 E# D2 [0:1] $end
$var reg 1 F# EN $end
$var reg 1 G# RESET $end
$scope module F1 $end
$var wire 1 C# CLK $end
$var wire 1 D# D $end
$var wire 1 F# EN $end
$var wire 1 G# RESET $end
$var reg 1 B# Q $end
$upscope $end
$scope module F2 $end
$var wire 1 C# CLK $end
$var wire 2 H# D2 [1:0] $end
$var wire 1 F# EN $end
$var wire 1 G# RESET $end
$var wire 1 @# Q2Z $end
$var wire 1 A# Q2C $end
$scope module F2_1 $end
$var wire 1 C# CLK $end
$var wire 1 I# D $end
$var wire 1 F# EN $end
$var wire 1 G# RESET $end
$var reg 1 A# Q $end
$upscope $end
$scope module F2_2 $end
$var wire 1 C# CLK $end
$var wire 1 J# D $end
$var wire 1 F# EN $end
$var wire 1 G# RESET $end
$var reg 1 @# Q $end
$upscope $end
$upscope $end
$upscope $end
$scope module testbench12 $end
$var wire 8 K# codigo [7:0] $end
$var reg 12 L# dire [11:0] $end
$scope module MR $end
$var wire 8 M# codigo [7:0] $end
$var wire 12 N# dire [11:0] $end
$upscope $end
$upscope $end
$scope module testbench13 $end
$var wire 4 O# Q4 [0:3] $end
$var wire 2 P# Q2 [0:1] $end
$var wire 1 Q# Q $end
$var reg 1 R# CLK $end
$var reg 1 S# D $end
$var reg 2 T# D2 [0:1] $end
$var reg 4 U# D4 [0:3] $end
$var reg 1 V# EN $end
$var reg 1 W# RESET $end
$scope module F1 $end
$var wire 1 R# CLK $end
$var wire 1 S# D $end
$var wire 1 V# EN $end
$var wire 1 W# RESET $end
$var reg 1 Q# Q $end
$upscope $end
$scope module F2 $end
$var wire 1 R# CLK $end
$var wire 2 X# D2 [0:1] $end
$var wire 1 V# EN $end
$var wire 1 W# RESET $end
$var wire 2 Y# Q2 [0:1] $end
$scope module F2_1 $end
$var wire 1 R# CLK $end
$var wire 1 Z# D $end
$var wire 1 V# EN $end
$var wire 1 W# RESET $end
$var reg 1 [# Q $end
$upscope $end
$scope module F2_2 $end
$var wire 1 R# CLK $end
$var wire 1 \# D $end
$var wire 1 V# EN $end
$var wire 1 W# RESET $end
$var reg 1 ]# Q $end
$upscope $end
$upscope $end
$scope module F4 $end
$var wire 1 R# CLK $end
$var wire 4 ^# D4 [0:3] $end
$var wire 1 V# EN $end
$var wire 1 W# RESET $end
$var wire 4 _# Q4 [0:3] $end
$scope module F4_1 $end
$var wire 1 R# CLK $end
$var wire 2 `# D2 [0:1] $end
$var wire 1 V# EN $end
$var wire 1 W# RESET $end
$var wire 2 a# Q2 [0:1] $end
$scope module F2_1 $end
$var wire 1 R# CLK $end
$var wire 1 b# D $end
$var wire 1 V# EN $end
$var wire 1 W# RESET $end
$var reg 1 c# Q $end
$upscope $end
$scope module F2_2 $end
$var wire 1 R# CLK $end
$var wire 1 d# D $end
$var wire 1 V# EN $end
$var wire 1 W# RESET $end
$var reg 1 e# Q $end
$upscope $end
$upscope $end
$scope module F4_2 $end
$var wire 1 R# CLK $end
$var wire 2 f# D2 [0:1] $end
$var wire 1 V# EN $end
$var wire 1 W# RESET $end
$var wire 2 g# Q2 [0:1] $end
$scope module F2_1 $end
$var wire 1 R# CLK $end
$var wire 1 h# D $end
$var wire 1 V# EN $end
$var wire 1 W# RESET $end
$var reg 1 i# Q $end
$upscope $end
$scope module F2_2 $end
$var wire 1 R# CLK $end
$var wire 1 j# D $end
$var wire 1 V# EN $end
$var wire 1 W# RESET $end
$var reg 1 k# Q $end
$upscope $end
$upscope $end
$upscope $end
$upscope $end
$scope module testbench2 $end
$var wire 12 l# s [11:0] $end
$var reg 1 m# En $end
$var reg 1 n# NBL $end
$var reg 1 o# clk $end
$var reg 12 p# load [11:0] $end
$var reg 1 q# reset $end
$scope module c12 $end
$var wire 1 m# En $end
$var wire 1 n# NBL $end
$var wire 1 o# clk $end
$var wire 12 r# load [11:0] $end
$var wire 1 q# reset $end
$var reg 12 s# s [11:0] $end
$upscope $end
$upscope $end
$scope module testbench3 $end
$var wire 4 t# Y2 [0:3] $end
$var reg 1 u# EN $end
$var reg 4 v# I2 [0:3] $end
$scope module BuTi $end
$var wire 1 u# EN $end
$var wire 4 w# I2 [0:3] $end
$var wire 4 x# Y2 [0:3] $end
$upscope $end
$upscope $end
$scope module testbench4 $end
$var wire 4 y# Y3 [0:3] $end
$var reg 1 z# EN $end
$var reg 4 {# I3 [0:3] $end
$scope module BuTi $end
$var wire 1 z# EN $end
$var wire 4 |# I1 [0:3] $end
$var wire 4 }# Y1 [0:3] $end
$upscope $end
$upscope $end
$scope module testbench5 $end
$var wire 4 ~# Y1 [0:3] $end
$var reg 1 !$ EN $end
$var reg 4 "$ I1 [0:3] $end
$scope module BuTi $end
$var wire 1 !$ EN $end
$var wire 4 #$ I1 [0:3] $end
$var wire 4 $$ Y1 [0:3] $end
$upscope $end
$upscope $end
$scope module testbench6 $end
$var wire 4 %$ data [0:3] $end
$var reg 12 &$ address [0:11] $end
$var reg 1 '$ cs $end
$var reg 1 ($ we $end
$scope module ram $end
$var wire 12 )$ address [0:11] $end
$var wire 1 '$ cs $end
$var wire 1 ($ we $end
$var wire 4 *$ data [0:3] $end
$var reg 4 +$ dataout [0:3] $end
$upscope $end
$upscope $end
$scope module testbench7 $end
$var wire 1 ,$ zero $end
$var wire 1 -$ carry $end
$var wire 4 .$ R [3:0] $end
$var reg 4 /$ A [3:0] $end
$var reg 4 0$ B [3:0] $end
$var reg 3 1$ COM [2:0] $end
$scope module calc $end
$var wire 4 2$ A [3:0] $end
$var wire 4 3$ B [3:0] $end
$var wire 3 4$ COM [2:0] $end
$var wire 1 ,$ zero $end
$var wire 1 -$ carry $end
$var wire 4 5$ R [3:0] $end
$var reg 5 6$ PM [4:0] $end
$upscope $end
$upscope $end
$scope module testbench8 $end
$var wire 13 7$ O [12:0] $end
$var reg 7 8$ I [6:0] $end
$scope module MROM $end
$var wire 7 9$ I [6:0] $end
$var wire 13 :$ O [12:0] $end
$var reg 13 ;$ s [12:0] $end
$upscope $end
$upscope $end
$scope module testbench9 $end
$var wire 1 <$ Q $end
$var reg 1 =$ CLK $end
$var reg 1 >$ RESET $end
$scope module FT1 $end
$var wire 1 =$ CLK $end
$var wire 1 >$ RESET $end
$var wire 1 <$ Q $end
$scope module FT $end
$var wire 1 =$ CLK $end
$var wire 1 ?$ D $end
$var wire 1 >$ RESET $end
$var reg 1 <$ Q $end
$upscope $end
$upscope $end
$upscope $end
$enddefinitions $end
#0
$dumpvars
x?$
x>$
x=$
x<$
bx ;$
bx :$
bx 9$
bx 8$
bx 7$
bx 6$
bx 5$
bx 4$
bx 3$
bx 2$
bx 1$
bx 0$
bx /$
bx .$
x-$
x,$
bx +$
bx *$
bx )$
x($
x'$
bx &$
bx %$
bx $$
bx #$
bx "$
x!$
bx ~#
bx }#
bx |#
bx {#
xz#
bx y#
bx x#
bx w#
bx v#
xu#
bx t#
bx s#
b0 r#
0q#
b0 p#
0o#
0n#
0m#
bx l#
xk#
xj#
xi#
xh#
bx g#
bx f#
xe#
xd#
xc#
xb#
bx a#
bx `#
bx _#
bx ^#
x]#
x\#
x[#
xZ#
bx Y#
bx X#
xW#
xV#
bx U#
bx T#
xS#
xR#
xQ#
bx P#
bx O#
bx N#
bx M#
bx L#
bx K#
xJ#
xI#
bx H#
xG#
xF#
bx E#
xD#
xC#
xB#
xA#
x@#
x?#
x>#
x=#
x<#
bx ;#
bx :#
x9#
x8#
x7#
x6#
bx 5#
bx 4#
bx 3#
bx 2#
x1#
x0#
x/#
x.#
bx -#
bx ,#
x+#
x*#
x)#
x(#
bx '#
bx &#
bx %#
bx $#
bx ##
bx "#
bx !#
x~"
x}"
x|"
x{"
bx z"
bx y"
xx"
xw"
xv"
xu"
bx t"
bx s"
bx r"
bx q"
xp"
xo"
xn"
xm"
bx l"
bx k"
xj"
xi"
bx h"
bx g"
bx f"
xe"
xd"
xc"
bx b"
bx a"
bx `"
bx _"
x^"
x]"
x\"
x["
bx Z"
bx Y"
xX"
xW"
xV"
xU"
bx T"
bx S"
bx R"
bx Q"
xP"
xO"
xN"
xM"
bx L"
bx K"
xJ"
xI"
bx H"
bx G"
xF"
xE"
xD"
bx C"
bx B"
bx A"
x@"
bx ?"
x>"
bx ="
bx <"
bx ;"
x:"
x9"
x8"
x7"
bx 6"
bx 5"
x4"
x3"
x2"
x1"
bx 0"
bx /"
bx ."
x-"
bx ,"
x+"
x*"
x)"
bx ("
x'"
bx &"
bx %"
x$"
x#"
bx ""
bx !"
bx ~
bx }
bx |
bx {
bx z
bx y
xx
xw
xv
xu
bx t
bx s
xr
xq
xp
xo
bx n
bx m
bx l
bx k
xj
xi
xh
xg
xf
bx e
bx d
xc
xb
xa
x`
bx _
bx ^
bx ]
bx \
x[
xZ
xY
xX
bx W
bx V
xU
xT
xS
xR
bx Q
bx P
bx O
bx N
bx M
bx L
bx K
xJ
bx I
bx H
xG
bx F
bx E
xD
bx C
b110 B
xA
x@
bx ?
bx >
bx =
bx <
x;
bx :
bx 9
bx 8
bx 7
bx 6
bx 5
b110 4
bx 3
b0 2
b100010100 1
b1010010000 0
b10000 /
0.
b110 -
0,
bx +
bx *
bx )
bx (
x'
bx &
bx %
x$
bx #
x"
bx !
$end
#2
01"
03"
07"
09"
b0 /"
b0 5"
b0 !
b0 3
b0 C
b0 E
b0 H
b0 z
b0 ,"
b0 ?"
b0 {
0@"
0>"
1G
0D
0A
0$"
1#"
0-"
0j
0)"
b1000000001000 8
b1000000001000 !"
b1000000001000 ""
1+"
0u
0w
0o
0q
1;
b0 s
b0 m
0*"
1`
1b
1f
1h
0R
1T
0X
0Z
b0 <
b0 I
b0 l
b0 |
b1 ("
0@
b11 ^
b11 d
b1 P
b0 V
b0 }
1'"
1J
b1111 \
b100 N
0S
b0 Q
0U
0Y
b0 &
b0 7
b0 L
b0 O
b0 W
0[
0a
b0 _
0c
0g
b0 %
b0 6
b0 F
b0 K
b0 ]
b0 e
0i
0'
0"
0p
b0 n
0r
0v
b0 )
b0 :
b0 k
b0 y
b0 t
0x
02"
b0 0"
04"
08"
b0 +
b0 ?
b0 ."
b0 6"
0:"
b0 >
b0 ~
0$
b1001111 (
b1001111 9
b1001111 %"
b1001111 ="
b1001111 #
b1001111 5
b1001111 M
b1001111 ;"
b0 *
b0 =
b0 &"
b0 <"
1.
#3
0.
#5
0+"
1u
1w
1o
1q
b0 ("
0;
b11 s
b11 m
11"
13"
17"
19"
b1111 <
b1111 I
b1111 l
b1111 |
b11 /"
b11 5"
b1111 }
b1111 !
b1111 3
b1111 C
b1111 E
b1111 H
b1111 z
b1111 ,"
b1111 ?"
b10 {
0G
1D
0#"
1j
1)"
b11010000010 8
b11010000010 !"
b11010000010 ""
1R
1Z
b11 P
b1 V
b1101 N
0'"
0J
b11011111 #
b11011111 5
b11011111 M
b11011111 ;"
b1 *
b1 =
b1 &"
b1 <"
1$
1i
b11 e
1g
1c
b111111011111 (
b111111011111 9
b111111011111 %"
b111111011111 ="
b1111 %
b1111 6
b1111 F
b1111 K
b1111 ]
b11 _
1a
b100001 >
b100001 ~
b100 &
b100 7
b100 L
b100 O
b1 Q
1U
1,
#6
b0 l#
b0 s#
1q#
#7
0q#
#8
b10010010 p#
b10010010 r#
1n#
#9
b1100010000 p#
b1100010000 r#
#10
1m#
0,
#15
b1111 !
b1111 3
b1111 C
b1111 E
b1111 H
b1111 z
b1111 ,"
b1111 ?"
b0 {
1G
0D
1#"
0j
0)"
b1000000001000 8
b1000000001000 !"
b1000000001000 ""
1'"
1J
1p
b11 n
1r
1v
b1111 )
b1111 :
b1111 k
b1111 y
b11 t
1x
b100000 >
b100000 ~
0$
1,
#16
b1000110 2
#20
0,
#25
0#"
1-"
b1001 8
b1001 !"
b1001 ""
0`
0b
0f
0R
b0 ^
b1 d
b1 P
b1 \
b101 N
0'"
0J
b111101010001 (
b111101010001 9
b111101010001 %"
b111101010001 ="
b1010001 #
b1010001 5
b1010001 M
b1010001 ;"
b10 *
b10 =
b10 &"
b10 <"
1$
b1 W
1[
b1101001 >
b1101001 ~
b1101 &
b1101 7
b1101 L
b1101 O
b11 Q
1S
1,
#30
0,
#35
1#"
0-"
b1000000001000 8
b1000000001000 !"
b1000000001000 ""
1'"
1J
12"
b11 0"
14"
18"
b1111 +
b1111 ?
b1111 ."
b11 6"
1:"
b1101000 >
b1101000 ~
0$
1,
#36
b1100111 2
#40
0,
